\BOOKMARK [2][]{Outline0.1}{Introduction}{}% 1
\BOOKMARK [2][]{Outline0.2}{Projections}{}% 2
\BOOKMARK [2][]{Outline0.3}{Resolution Functions}{}% 3
\BOOKMARK [2][]{Outline0.4}{Equirectangular Projection}{}% 4
\BOOKMARK [2][]{Outline0.5}{Cubic Projection}{}% 5
\BOOKMARK [2][]{Outline0.6}{Facebook's Pyramid}{}% 6
\BOOKMARK [2][]{Outline0.7}{Resolution-Defined Projections}{}% 7
\BOOKMARK [2][]{Outline0.8}{Example}{}% 8
\BOOKMARK [2][]{Outline0.9}{Results}{}% 9
\BOOKMARK [2][]{Outline0.10}{Summary}{}% 10
\BOOKMARK [2][]{Outline0.11}{Thank You!}{}% 11
